<svg width="642" height="288" viewBox="0 0 642 288" fill="none" xmlns="http://www.w3.org/2000/svg">
    <line x1="-3.60792e-08" y1="144" x2="639" y2="144" stroke="#FF5500" />
    <path d="M497.248 287L640.496 144L497.248 1.00001" stroke="#FF5500" />
    <line x1="640.5" y1="1" x2="640.5" y2="287" stroke="#FF5500" />
</svg>